(module LOGO (layer F.Cu)
  (at 0 0)
 (fp_text reference "G***" (at 0 0) (layer F.SilkS) hide
  (effects (font (thickness 0.3)))
  )
  (fp_text value "LOGO" (at 0.75 0) (layer F.SilkS) hide
  (effects (font (thickness 0.3)))
  )
  (fp_poly (pts (xy 12.649200 11.785600) (xy -12.649200 11.785600) (xy -12.649200 6.591761) (xy -9.956639 6.591761) (xy -9.930329 6.650109) (xy -9.861472 6.767096) (xy -9.764910 6.917522) (xy -9.763798 6.919195)
     (xy -9.365751 7.449515) (xy -8.888661 7.970310) (xy -8.354482 8.461006) (xy -7.785168 8.901029) (xy -7.340331 9.190192) (xy -6.606050 9.584525) (xy -5.794975 9.942008) (xy -4.927351 10.255884)
     (xy -4.023426 10.519399) (xy -3.103444 10.725795) (xy -2.387600 10.842806) (xy -2.114077 10.879557) (xy -1.889420 10.907813) (xy -1.694143 10.928479) (xy -1.508757 10.942465) (xy -1.313774 10.950677)
     (xy -1.089706 10.954024) (xy -0.817063 10.953414) (xy -0.476359 10.949753) (xy -0.177800 10.945736) (xy 0.302186 10.936395) (xy 0.701782 10.921982) (xy 1.042130 10.901119) (xy 1.344371 10.872430)
     (xy 1.629649 10.834536) (xy 1.701800 10.823303) (xy 2.861495 10.590779) (xy 3.969404 10.272878) (xy 5.023778 9.870452) (xy 6.022865 9.384351) (xy 6.964916 8.815427) (xy 7.848180 8.164531)
     (xy 8.667826 7.435519) (xy 9.085230 7.005761) (xy 9.532036 6.502829) (xy 9.798085 6.184900) (xy 9.815746 6.157349) (xy 9.810563 6.136156) (xy 9.771522 6.120489) (xy 9.687608 6.109519)
     (xy 9.547807 6.102416) (xy 9.341104 6.098349) (xy 9.056485 6.096489) (xy 8.682936 6.096005) (xy 8.618473 6.096000) (xy 7.366000 6.096000) (xy 7.366000 6.959600) (xy 4.854398 6.959600)
     (xy 4.359406 6.958852) (xy 3.896140 6.956709) (xy 3.474355 6.953316) (xy 3.103801 6.948821) (xy 2.794234 6.943371) (xy 2.555406 6.937112) (xy 2.397070 6.930192) (xy 2.328980 6.922759)
     (xy 2.327098 6.921500) (xy 2.322445 6.859322) (xy 2.320586 6.715271) (xy 2.321528 6.509033) (xy 2.325277 6.260297) (xy 2.325893 6.230719) (xy 2.946400 6.230719) (xy 2.962006 6.248812)
     (xy 3.014579 6.263554) (xy 3.112749 6.275257) (xy 3.265149 6.284232) (xy 3.480410 6.290790) (xy 3.767162 6.295242) (xy 4.134038 6.297899) (xy 4.589668 6.299072) (xy 4.846644 6.299200)
     (xy 5.335558 6.299077) (xy 5.732324 6.298369) (xy 6.046394 6.296563) (xy 6.287218 6.293145) (xy 6.464248 6.287604) (xy 6.586936 6.279428) (xy 6.664734 6.268102) (xy 6.707093 6.253116)
     (xy 6.723464 6.233956) (xy 6.723299 6.210110) (xy 6.720319 6.197600) (xy 6.708651 6.166938) (xy 6.683854 6.143157) (xy 6.634252 6.125383) (xy 6.548172 6.112743) (xy 6.413940 6.104365)
     (xy 6.219881 6.099376) (xy 5.954322 6.096902) (xy 5.605589 6.096072) (xy 5.361377 6.096000) (xy 4.737838 6.098216) (xy 4.212726 6.104981) (xy 3.782962 6.116466) (xy 3.445467 6.132843)
     (xy 3.197162 6.154283) (xy 3.034970 6.180958) (xy 2.955810 6.213040) (xy 2.946400 6.230719) (xy 2.325893 6.230719) (xy 2.326849 6.184900) (xy 2.342298 5.486400) (xy 6.705600 5.486400)
     (xy 6.703465 4.254500) (xy 6.701331 3.022600) (xy 1.619761 0.047220) (xy 0.837228 0.518910) (xy 0.586539 0.671626) (xy 0.368913 0.807270) (xy 0.198207 0.916952) (xy 0.088282 0.991780)
     (xy 0.052748 1.022163) (xy 0.092082 1.059011) (xy 0.203247 1.144434) (xy 0.374202 1.269664) (xy 0.592907 1.425933) (xy 0.847320 1.604476) (xy 0.957350 1.680832) (xy 1.863901 2.307936)
     (xy 1.899378 4.235300) (xy 1.906229 4.668615) (xy 1.910417 5.070168) (xy 1.911985 5.428588) (xy 1.910978 5.732505) (xy 1.907442 5.970550) (xy 1.901422 6.131353) (xy 1.892962 6.203545)
     (xy 1.891587 6.205932) (xy 1.834357 6.213458) (xy 1.684444 6.220143) (xy 1.450764 6.225902) (xy 1.142232 6.230646) (xy 0.767763 6.234291) (xy 0.336272 6.236749) (xy -0.143326 6.237934)
     (xy -0.662117 6.237760) (xy -1.211184 6.236140) (xy -1.220683 6.236100) (xy -4.289685 6.223000) (xy -4.278759 5.588000) (xy -3.644298 5.588000) (xy 1.270000 5.588000) (xy 1.269324 4.127500)
     (xy 1.268649 2.667000) (xy 0.343445 2.027252) (xy -0.581760 1.387505) (xy -2.066934 2.281252) (xy -2.468698 2.523609) (xy -2.791692 2.720257) (xy -3.044597 2.877209) (xy -3.236093 3.000478)
     (xy -3.374861 3.096076) (xy -3.469580 3.170017) (xy -3.528932 3.228313) (xy -3.561596 3.276977) (xy -3.576253 3.322022) (xy -3.577202 3.327400) (xy -3.585807 3.423493) (xy -3.595262 3.603231)
     (xy -3.604882 3.848670) (xy -3.613982 4.141866) (xy -3.621875 4.464873) (xy -3.623297 4.533900) (xy -3.644298 5.588000) (xy -4.278759 5.588000) (xy -4.271766 5.181600) (xy -4.264298 4.810346)
     (xy -4.254608 4.421540) (xy -4.243590 4.045904) (xy -4.232137 3.714159) (xy -4.222424 3.483309) (xy -4.191000 2.826419) (xy -2.699805 1.924380) (xy -2.348261 1.711474) (xy -2.024927 1.515167)
     (xy -1.739952 1.341657) (xy -1.503481 1.197142) (xy -1.325664 1.087822) (xy -1.216648 1.019895) (xy -1.185833 0.999565) (xy -1.210078 0.961995) (xy -1.298025 0.894626) (xy -1.343942 0.864996)
     (xy -1.524827 0.753203) (xy -3.126436 1.769040) (xy -4.728046 2.784878) (xy -4.749800 6.527800) (xy -7.353300 6.540961) (xy -7.856871 6.544218) (xy -8.328358 6.548645) (xy -8.758262 6.554055)
     (xy -9.137084 6.560264) (xy -9.455325 6.567086) (xy -9.703485 6.574336) (xy -9.872064 6.581829) (xy -9.951564 6.589378) (xy -9.956639 6.591761) (xy -12.649200 6.591761) (xy -12.649200 1.680840)
     (xy -11.322867 1.680840) (xy -11.253462 2.711757) (xy -11.094216 3.707661) (xy -10.845041 4.664488) (xy -10.528805 5.524500) (xy -10.351144 5.943600) (xy -7.315200 5.943600) (xy -7.315200 3.501056)
     (xy -7.315201 1.058513) (xy -7.496461 1.170539) (xy -7.861956 1.366282) (xy -8.237807 1.513428) (xy -8.595851 1.602507) (xy -8.849874 1.625600) (xy -9.042400 1.625600) (xy -9.042400 1.026429)
     (xy -8.700084 0.966817) (xy -8.476091 0.910158) (xy -8.225896 0.819311) (xy -7.979250 0.707977) (xy -7.765904 0.589857) (xy -7.615606 0.478653) (xy -7.595380 0.458061) (xy -7.550792 0.397438)
     (xy -7.544506 0.332975) (xy -7.580350 0.233716) (xy -7.637545 0.117101) (xy -7.819987 -0.325282) (xy -7.919119 -0.780169) (xy -7.943815 -1.193800) (xy -7.933976 -1.429709) (xy -7.907422 -1.669085)
     (xy -7.868599 -1.890610) (xy -7.821953 -2.072965) (xy -7.771930 -2.194832) (xy -7.726639 -2.235201) (xy -7.655199 -2.215152) (xy -7.530078 -2.165870) (xy -7.388424 -2.103645) (xy -7.267386 -2.044773)
     (xy -7.204901 -2.006367) (xy -7.200424 -1.944063) (xy -7.223436 -1.820058) (xy -7.244781 -1.741840) (xy -7.309042 -1.379757) (xy -7.303517 -0.979643) (xy -7.230334 -0.575236) (xy -7.157058 -0.350289)
     (xy -7.116437 -0.268628) (xy -7.057926 -0.238902) (xy -6.946811 -0.249134) (xy -6.892998 -0.259177) (xy -6.428971 -0.300068) (xy -5.934250 -0.251607) (xy -5.719878 -0.204448) (xy -5.430427 -0.114522)
     (xy -5.145240 0.001964) (xy -4.891617 0.131808) (xy -4.696861 0.261811) (xy -4.630580 0.322222) (xy -4.527924 0.431800) (xy -4.734122 0.652551) (xy -4.940321 0.873302) (xy -5.075219 0.773567)
     (xy -5.450865 0.552440) (xy -5.859602 0.413035) (xy -6.276696 0.363118) (xy -6.375400 0.365322) (xy -6.680200 0.381000) (xy -6.706468 5.943600) (xy -5.384800 5.943600) (xy -5.384800 2.449617)
     (xy -3.454864 1.224808) (xy -3.056179 0.972178) (xy -2.684047 0.737126) (xy -2.347188 0.525104) (xy -2.054317 0.341565) (xy -1.814154 0.191960) (xy -1.635416 0.081742) (xy -1.526821 0.016362)
     (xy -1.496388 0.000000) (xy -1.445509 0.027221) (xy -1.329816 0.100929) (xy -1.167617 0.209189) (xy -1.015278 0.313623) (xy -0.562707 0.627247) (xy 0.499382 -0.016577) (xy 0.796127 -0.195157)
     (xy 1.065383 -0.354714) (xy 1.294627 -0.488028) (xy 1.471334 -0.587879) (xy 1.582982 -0.647045) (xy 1.616069 -0.660401) (xy 1.668268 -0.635319) (xy 1.800493 -0.562951) (xy 2.005249 -0.447614)
     (xy 2.275041 -0.293623) (xy 2.602375 -0.105295) (xy 2.979757 0.113056) (xy 3.399691 0.357111) (xy 3.854683 0.622557) (xy 4.337239 0.905075) (xy 4.485738 0.992209) (xy 7.300808 2.644818)
     (xy 7.333043 2.986109) (xy 7.342914 3.142335) (xy 7.351600 3.378499) (xy 7.358603 3.672942) (xy 7.363428 4.004004) (xy 7.365576 4.350025) (xy 7.365638 4.406900) (xy 7.366000 5.486400)
     (xy 8.140700 5.480201) (xy 8.492632 5.475365) (xy 8.885960 5.466708) (xy 9.273802 5.455436) (xy 9.609276 5.442753) (xy 9.623874 5.442101) (xy 10.332348 5.410200) (xy 10.617254 4.851400)
     (xy 10.856586 4.329357) (xy 11.078542 3.744679) (xy 11.269830 3.136250) (xy 11.417159 2.542952) (xy 11.433423 2.463800) (xy 11.498551 2.046960) (xy 11.544946 1.559923) (xy 11.571907 1.032477)
     (xy 11.578738 0.494410) (xy 11.564738 -0.024487) (xy 11.529209 -0.494427) (xy 11.507048 -0.674672) (xy 11.305282 -1.747306) (xy 11.008215 -2.791955) (xy 10.619763 -3.802407) (xy 10.143842 -4.772445)
     (xy 9.584365 -5.695855) (xy 8.945250 -6.566422) (xy 8.230411 -7.377932) (xy 7.443764 -8.124170) (xy 6.589224 -8.798922) (xy 6.233894 -9.044349) (xy 5.340210 -9.580815) (xy 4.392754 -10.042001)
     (xy 3.407581 -10.421879) (xy 2.400747 -10.714423) (xy 1.388306 -10.913604) (xy 1.176439 -10.943012) (xy 0.804486 -10.979867) (xy 0.369847 -11.005114) (xy -0.100850 -11.018696) (xy -0.580977 -11.020557)
     (xy -1.043905 -11.010640) (xy -1.463005 -10.988888) (xy -1.811648 -10.955245) (xy -1.854200 -10.949457) (xy -2.906213 -10.753666) (xy -3.901675 -10.473858) (xy -4.840102 -10.110319) (xy -5.721008 -9.663335)
     (xy -6.543910 -9.133191) (xy -7.308322 -8.520175) (xy -8.013759 -7.824570) (xy -8.659738 -7.046663) (xy -8.801714 -6.853541) (xy -8.979179 -6.585252) (xy -9.182293 -6.242756) (xy -9.400517 -5.846781)
     (xy -9.623310 -5.418056) (xy -9.840134 -4.977311) (xy -10.040450 -4.545273) (xy -10.213717 -4.142673) (xy -10.325367 -3.856823) (xy -10.703843 -2.711751) (xy -10.992920 -1.581388) (xy -11.192508 -0.469794)
     (xy -11.302520 0.618969) (xy -11.322867 1.680840) (xy -12.649200 1.680840) (xy -12.649200 -11.785600) (xy 12.649200 -11.785600) (xy 12.649200 11.785600) )(layer F.SilkS) (width  0.010000)
  )
  (fp_poly (pts (xy 5.218776 -6.533710) (xy 5.550098 -6.450955) (xy 5.857322 -6.283126) (xy 5.977188 -6.184629) (xy 6.199815 -5.947382) (xy 6.339148 -5.711401) (xy 6.408693 -5.447085) (xy 6.423182 -5.207000)
     (xy 6.396212 -4.893399) (xy 6.306533 -4.632573) (xy 6.140994 -4.396339) (xy 5.963704 -4.222352) (xy 5.651393 -4.009172) (xy 5.312502 -3.893417) (xy 4.952763 -3.876189) (xy 4.582411 -3.957027)
     (xy 4.253250 -4.118020) (xy 3.989348 -4.342894) (xy 3.796992 -4.617211) (xy 3.682468 -4.926534) (xy 3.665585 -5.109720) (xy 4.290569 -5.109720) (xy 4.353669 -4.928613) (xy 4.514487 -4.719682)
     (xy 4.732457 -4.582198) (xy 4.986774 -4.522446) (xy 5.256639 -4.546714) (xy 5.421220 -4.606035) (xy 5.614580 -4.747200) (xy 5.736877 -4.938435) (xy 5.788112 -5.157195) (xy 5.768285 -5.380938)
     (xy 5.677395 -5.587118) (xy 5.515443 -5.753193) (xy 5.421220 -5.807966) (xy 5.168766 -5.884518) (xy 4.923456 -5.883220) (xy 4.699190 -5.815522) (xy 4.509868 -5.692873) (xy 4.369390 -5.526723)
     (xy 4.291657 -5.328522) (xy 4.290569 -5.109720) (xy 3.665585 -5.109720) (xy 3.652064 -5.256427) (xy 3.712067 -5.592454) (xy 3.788549 -5.780034) (xy 3.988427 -6.076080) (xy 4.248184 -6.302576)
     (xy 4.551024 -6.456416) (xy 4.880154 -6.534495) (xy 5.218776 -6.533710) )(layer F.SilkS) (width  0.010000)
  )
)
